{
    "KPlugin": {
        "BugReportUrl": "https://bugs.kde.org/enter_bug.cgi?product=systemsettings&component=kcm_printer_manager",
        "Description": "Configure your printers",
        "Description[ar]": "يضبط طابعاتك",
        "Description[az]": "Printerlərinizi tənzimləyin",
        "Description[be]": "Наладжванне вашых прынтараў",
        "Description[bg]": "Настройване на вашите принтери",
        "Description[ca@valencia]": "Configura les impressores",
        "Description[ca]": "Configura les impressores",
        "Description[cs]": "Nastavte vaše tiskárny",
        "Description[da]": "Indstil dine printere",
        "Description[de]": "Drucker einrichten",
        "Description[en_GB]": "Configure your printers",
        "Description[eo]": "Agordu viajn printilojn",
        "Description[es]": "Configure sus impresoras",
        "Description[eu]": "Konfiguratu zure inprimagailuak",
        "Description[fi]": "Tulostinasetukset",
        "Description[fr]": "Configurer vos imprimantes",
        "Description[gl]": "Configure as súas impresoras.",
        "Description[hu]": "Nyomtatóbeállítás",
        "Description[ia]": "Configura tu imprimitores",
        "Description[id]": "Konfigurasi printer-mu",
        "Description[is]": "Grunnstilltu prentarana þína",
        "Description[it]": "Configura le tue stampanti",
        "Description[ka]": "მოირგეთ თქვენი პრინტერები",
        "Description[ko]": "프린터 설정",
        "Description[lt]": "Konfigūruoti savo spausdintuvus",
        "Description[nl]": "Uw printers instellen",
        "Description[nn]": "Set opp skrivarar",
        "Description[pl]": "Ustaw swoje drukarki",
        "Description[pt]": "Configurar as suas impressoras",
        "Description[pt_BR]": "Configure suas impressoras",
        "Description[ro]": "Configurați imprimantele",
        "Description[ru]": "Настройка принтеров",
        "Description[sk]": "Nastavuje vaše tlačiarne",
        "Description[sl]": "Nastavi svoje tiskalnike",
        "Description[sv]": "Anpassa skrivare",
        "Description[ta]": "அச்சுப்பொறிகளை நிர்வகியுங்கள்",
        "Description[tr]": "Yazıcılarınızı yapılandırın",
        "Description[uk]": "Налаштування ваших принтерів",
        "Description[x-test]": "xxConfigure your printersxx",
        "Description[zh_CN]": "配置打印机",
        "Description[zh_TW]": "設定您的印表機",
        "Icon": "preferences-devices-printer",
        "Name": "Printers",
        "Name[ar]": "الطّابعات",
        "Name[az]": "Printerlər",
        "Name[be]": "Прынтары",
        "Name[bg]": "Принтери",
        "Name[bs]": "Štampači",
        "Name[ca@valencia]": "Impressores",
        "Name[ca]": "Impressores",
        "Name[cs]": "Tiskárny",
        "Name[da]": "Printere",
        "Name[de]": "Drucker",
        "Name[el]": "Εκτυπωτές",
        "Name[en_GB]": "Printers",
        "Name[eo]": "Printiloj",
        "Name[es]": "Impresoras",
        "Name[et]": "Printerid",
        "Name[eu]": "Inprimagailuak",
        "Name[fi]": "Tulostimet",
        "Name[fr]": "Imprimantes",
        "Name[ga]": "Printéirí",
        "Name[gl]": "Impresoras",
        "Name[hu]": "Nyomtatók",
        "Name[ia]": "Imprimitores",
        "Name[id]": "Printer",
        "Name[is]": "Prentarar",
        "Name[it]": "Stampanti",
        "Name[ja]": "プリンタ",
        "Name[ka]": "პრინტერები",
        "Name[kk]": "Принтерлер",
        "Name[km]": "ម៉ាស៊ីន​បោះពុម្ព",
        "Name[ko]": "프린터",
        "Name[lt]": "Spausdintuvai",
        "Name[mai]": "मुद्रक",
        "Name[mr]": "छपाईयंत्रे",
        "Name[nb]": "Skrivere",
        "Name[nds]": "Druckers",
        "Name[nl]": "Printers",
        "Name[nn]": "Skrivarar",
        "Name[oc]": "Estampairas",
        "Name[pa]": "ਪਰਿੰਟਰ",
        "Name[pl]": "Drukarki",
        "Name[pt]": "Impressoras",
        "Name[pt_BR]": "Impressoras",
        "Name[ro]": "Imprimante",
        "Name[ru]": "Принтеры",
        "Name[sk]": "Tlačiarne",
        "Name[sl]": "Tiskalniki",
        "Name[sr@ijekavian]": "Штампачи",
        "Name[sr@ijekavianlatin]": "Štampači",
        "Name[sr@latin]": "Štampači",
        "Name[sr]": "Штампачи",
        "Name[sv]": "Skrivare",
        "Name[ta]": "அச்சுப்பொறிகள்",
        "Name[tg]": "Принтерҳо",
        "Name[tr]": "Yazıcılar",
        "Name[ug]": "پرىنتېرلار",
        "Name[uk]": "Принтери",
        "Name[x-test]": "xxPrintersxx",
        "Name[zh_CN]": "打印机",
        "Name[zh_TW]": "印表機"
    },
    "X-KDE-Keywords": "printers,print,paper,cups,ink,printing,impression,remote printer,internet printer,network printer,ipps,hp jetdirect,ldp,ldr,cups-brf,cups brf,virtual braille brf printer,share printer",
    "X-KDE-Keywords[az]": "printers,print,paper,cups,ink,printing,impression,remote printer,internet printer,network printer,ipps,hp jetdirect,ldp,ldr,cups-brf,cups brf,virtual braille brf printer,share printer,printerlər,kağız,çap,çap etmə,uzaq printer,şəbəkə printeri,printeri paylaşmaq",
    "X-KDE-Keywords[ca]": "impressores,impressió,paper,cups,tinta,impressora,impressora remota,impressora d'internet,impressora de xarxa,ipps,hp jetdirect,ldp,ldr,cups-brf,cups brf,impressora virtual brf braille,impressora compartida,compartició d'impressora",
    "X-KDE-Keywords[el]": "εκτυπωτές,εκτύπωση,χαρτί,cupsμελάνι,εκτύπωση,impression,απομακρυσμένος εκτυπωτής,εκτυπωτής στο διαδίκτυο,εκτυπωτής στο δίκτυο,ipps,hp jetdirect,ldp,ldr,cups-brf,cups brf,εικονικού μπράιγ brf εκτυπωτής,κοινή χρήση εκτυπωτή",
    "X-KDE-Keywords[en_GB]": "printers,print,paper,cups,ink,printing,impression,remote printer,internet printer,network printer,ipps,hp jetdirect,ldp,ldr,cups-brf,cups brf,virtual braille brf printer,share printer",
    "X-KDE-Keywords[es]": "impresoras,impresora,papel,cups,tinta,impresión,imprimir,impresora remota,impresora de internet,impresora de red,ipps,hp jetdirect,ldp,ldr,cups-brf,cups brf,impresora brf braille virtual,compartir impresora",
    "X-KDE-Keywords[eu]": "inprimagailuak,inprimagailua,papera,cups,tinta,inprimatzea,inprimaketa, urrutiko inprimagailua,internet bidezko inprimagailua,sareko inprimagailua, ipps,hp jetdirect,ldp,ldr,cups-brf,cups brf,virtual braille brf inprimagailua, inprimagailua partekatzea",
    "X-KDE-Keywords[fi]": "tulostimet,tulostin,kirjoittimet,kirjoitin,tulosta,tulostus,paperi,cups,muste,etätulostin,internettulostin,verkkotulostin,ipps,hp jetdirect,ldp,ldr,cups-brf,virtuaalinen braille brf -tulostin,jaa tulostin",
    "X-KDE-Keywords[fr]": "imprimantes, imprimer, papiers, cups, encre, impression, imprimante distante, imprimante Internet, imprimante réseau, ipps, hpjetdirect, ldp, ldr, cups-brf, cups brf, imprimante braille brf virtuelle, imprimante partagée",
    "X-KDE-Keywords[hu]": "nyomtatók,nyomtatás,papír,cups,tinta,nyomtatás,megjelenés,távoli nyomtató,internetes nyomtató,hálózati nyomtató,ipps,hp jetdirect,ldp,ldr,cups-brf,cups brf,virtuális braille brf nyomtató,nyomtatómegosztás",
    "X-KDE-Keywords[ia]": "imprimitores,imprime,papiro,cups,tinta,imprimer,impression,imprimitor remote,imprimitor de internet,imprimitor de rete,ipps,hp jetdirect,ldp,ldr,cups-brf,cups brf,imprimitor virtual braille brf,imprimitor de compartir",
    "X-KDE-Keywords[it]": "stampanti,stampa,carta,cups,inchiostro,stampare,stampe,stampante remota,stampante internet, stampante di rete,ipps,hp jetdirect,ldp,ldr,cups-brf,cups brf,stampante virtuale braille brf,condividi stampante",
    "X-KDE-Keywords[ko]": "printers,print,paper,cups,ink,printing,impression,remote printer,internet printer,network printer,ipps,hp jetdirect,ldp,ldr,cups-brf,cups brf,virtual braille brf printer,share printer,프린터,인쇄,출력,잉크,원격 프린터,네트워크 프린터,인터넷 프린터,공유 프린터",
    "X-KDE-Keywords[lt]": "spausdintuvai,spausdintuvas,spausdinti,atspausdinti,popierius,cups,rašalas,rasalas,dažai,dazai,spausdinimas,atspaudas,atspaudimas,nuotolinis spausdintuvas,printeris,internetinis spausdintuvas,spausdintuvas internete,tinklo spausdintuvas,interneto spausdintuvas,ipps,hp jetdirect,ldp,ldr,cups-brf,cups brf,virtualus brailio brf spausdintuvas,bendras spausdintuvas,bendrinamas spausdintuvas,viešas spausdintuvas,viesas spausdintuvas",
    "X-KDE-Keywords[nl]": "printers,afdruk,papier,cups,inkt,afdrukken,impressie,printerop afstand,internetprinter,netwerkprinter,ipps,hp jetdirect,ldp,ldr,cups-brf,cups brf,virtuele braille brf printer,printer delen",
    "X-KDE-Keywords[pl]": "drukarki,drukuj,papier,cups,tusz,drukowanie,wrażenie,drukarka zdalna,internet drukarka,drukarka sieciowa,ipps,hp jetdirect,ldp,ldr,cups-brf,cups brf,drukarka wirtualna brajla brf,udostępnij drukarkę",
    "X-KDE-Keywords[pt]": "impressoras,impressão,papel,cups,tinta,impressão,impressora remota,impressora da internet,impressora de rede,ipps,hp jetdirect,ldp,ldr,cups-brf,cups brf,impressora virtual brf para braille,partilhar a impressora",
    "X-KDE-Keywords[pt_BR]": "impressoras,imprimir,papel,cups,tinta,imprimindo,impressão,impressora remota,impressão via internet,impressão via rede,ipps,hp jetdirect,ldp,ldr,cups-brf,cups brf,impressora braille brf virtual,compartilhar impressora",
    "X-KDE-Keywords[sk]": "tlačiarne,tlač,papier,cups,atrament,tlač,odtlačok,diaľková tlačiareň,internettlačiareň,sieťová tlačiareň,ipps,hp jetdirect,ldp,ldr,cups-brf,cups brf,virtuálneBraillova tlačiareň brf, zdieľaná tlačiareň",
    "X-KDE-Keywords[sl]": "tiskalniki,tisk,papir,cups,črnilo,tiskanje,vtis,oddaljeni tiskalnik,internetni tiskalnik,omrežni tiskalnik,ipps,,hp jetdirect,ldp,ldr,cups-brf,navidezni braillov tiskalnik,skupni tiskalnik",
    "X-KDE-Keywords[sv]": "skrivare,utskrift,papper,cups,bläck,tryck,intryck,fjärrskrivare,internetskrivare,nätverksskrivare,ipps,hp jetdirect,ldp,ldr,cups-brf,cups brf,virtuell braille brf-skrivare,dela skrivare",
    "X-KDE-Keywords[uk]": "printers,print,paper,cups,ink,printing,impression,remote printer,internet printer,network printer,ipps,hp jetdirect,ldp,ldr,cups-brf,cups brf,virtual braille brf printer,share printer,принтери,друк,друкарки,папір,купс,чорнило,друк,вигляд,віддалений принтер,інтернет-принтер,мережевий принтер,елдепе,айпіпіес,віртуальний брайль,спільний принтер",
    "X-KDE-Keywords[x-test]": "xxprintersxx,xxprintxx,xxpaperxx,xxcupsxx,xxinkxx,xxprintingxx,xximpressionxx,xxremote printerxx,xxinternet printerxx,xxnetwork printerxx,xxippsxx,xxhp jetdirectxx,xxldpxx,xxldrxx,xxcups-brfxx,xxcups brfxx,xxvirtual braille brf printerxx,xxshare printerxx",
    "X-KDE-Keywords[zh_CN]": "printers,print,paper,cups,ink,printing,impression,remote printer,internet printer,network printer,ipps,hp jetdirect,ldp,ldr,cups-brf,cups brf,virtual braille brf printer,share printer,打印,打印机,墨盒,墨量,墨粉,残量,转印,热敏,激光,喷墨,远程打印机,互联网打印机,在线打印机,网络打印机,互联网打印协议,共享打印机,虚拟打印机,惠普,兄弟,行式打印机后台程序协议",
    "X-KDE-System-Settings-Parent-Category": "hardware"
}
