{
    "KPlugin": {
        "Description": "Inform when a new printer is detected, and print problems",
        "Description[ar]": "يخطرك عند اكتشاف طابعة جديدة، وعند حدوث مشكلة في الطّباعة",
        "Description[az]": "Yeni printer aşkar edildiyində və problem yarandıqda məlumat vermək",
        "Description[be]": "Інфармуе пра выяўленне новага прынтара і праблемы друку",
        "Description[bg]": "Известяване при откриване на нов принтер и проблеми с печата",
        "Description[ca@valencia]": "Informa quan es detecta una impressora nova, i dels problemes de la impressió",
        "Description[ca]": "Informa quan es detecta una impressora nova, i dels problemes de la impressió",
        "Description[cs]": "Informovat, když je detekována nová tiskárna a při tiskových problémech",
        "Description[da]": "Giv besked når en ny printer detekteres eller der er udskriftsproblemer",
        "Description[de]": "Benachrichtigung über neu erkannte Drucker und Probleme beim Drucken",
        "Description[en_GB]": "Inform when a new printer is detected, and print problems",
        "Description[eo]": "Informu kiam nova printilo estas ekkonata, kaj kiam printilaj problemoj estas ekkonataj",
        "Description[es]": "Informar cuándo se detecta una nueva impresora y de los problemas de impresión",
        "Description[eu]": "Informatu inprimagailu berri bat detektatzen denean, eta inprimatze arazoak daudenean",
        "Description[fi]": "Ilmoita uusista tulostimista tai tulostusongelmasta",
        "Description[fr]": "Signaler la détection d'une nouvelle imprimante et les problèmes d'impression",
        "Description[gl]": "Informar cando se detecte unha nova impresora, e ante calquera problema.",
        "Description[hu]": "Informálás új nyomtató észleléséről, és a problémák nyomtatása",
        "Description[ia]": "Informa quando un nove imprimitor es relevate, e problemas de imprimer",
        "Description[id]": "Menginformasikan ketika printer baru terdeteksi, dan masalah cetak",
        "Description[is]": "Láta vita þegar nýr prentari finnst eða vandamál koma upp í prentun",
        "Description[it]": "Informa quando viene rilevata una nuova stampante o ci sono problemi di stampa",
        "Description[ka]": "ახალი პრინტერის პოვნისა და ბეჭდვის პრობლემების შესახებ შეტყობინება",
        "Description[ko]": "새 프린터가 감지되거나 문제가 생겼을 때 알림",
        "Description[lt]": "Informuoti apie aptiktą spausdintuvą ir spausdinimo problemas",
        "Description[nl]": "Toon wanneer een nieuwe printer is ontdekt en toon problemen",
        "Description[nn]": "Varsla når ein ny skrivar eller utskriftsproblem vert oppdaga",
        "Description[pl]": "Powiadamia o wykryciu nowej drukarki i o kłopotach z wydrukiem",
        "Description[pt]": "Informar quando detectar uma nova impressora ou erros de impressão",
        "Description[pt_BR]": "Informa quando uma nova impressora for detectada ou ocorrerem erros de impressão",
        "Description[ro]": "Informează când este descoperită o nouă imprimantă, notifică problemele de tipărire",
        "Description[ru]": "Сообщение об обнаружении новых принтеров и проблем с печатью",
        "Description[sk]": "Informuje, keď sa zistí nová tlačiareň, a problémy s tlačou",
        "Description[sl]": "Obveščaj ob zaznavi novih tiskalnikov in težav s tiskanjem",
        "Description[sv]": "Informera om när en ny skrivare detekteras, och om utskriftsproblem",
        "Description[ta]": "புதிய அச்சுப்பொறி கண்டறியப்படும்போது தெரிவித்து, சிக்கல்களைப் பற்றி தெரிவிக்கும்",
        "Description[tr]": "Yeni bir yazıcı algılandığında ve yazdırma sorunlarında bilgilendir",
        "Description[uk]": "Повідомлення щодо виявлення принтера та щодо проблем з принтером",
        "Description[x-test]": "xxInform when a new printer is detected, and print problemsxx",
        "Description[zh_CN]": "检测到新打印机和打印故障时通知",
        "Description[zh_TW]": "偵測到新印表機時告知，並印出問題",
        "Name": "Print Manager",
        "Name[ar]": "مدير الطّباعة",
        "Name[az]": "Cap Meneceri",
        "Name[be]": "Кіраўнік друку",
        "Name[bg]": "Управление на принтери",
        "Name[bs]": "Menadžer štampe",
        "Name[ca@valencia]": "Gestor d'impressió",
        "Name[ca]": "Gestor d'impressió",
        "Name[cs]": "Správce tisku",
        "Name[da]": "Udskriftshåndtering",
        "Name[de]": "Druckerverwaltung",
        "Name[el]": "Διαχειριστής εκτυπώσεων",
        "Name[en_GB]": "Print Manager",
        "Name[eo]": "Printila Administrilo",
        "Name[es]": "Gestor de impresión",
        "Name[et]": "Trükkimise haldur",
        "Name[eu]": "Inprimatze-kudeatzailea",
        "Name[fi]": "Tulostuksenhallinta",
        "Name[fr]": "Gestionnaire d'impression",
        "Name[ga]": "Bainisteoir Priontála",
        "Name[gl]": "Xestor de impresión",
        "Name[hu]": "Nyomtatáskezelő",
        "Name[ia]": "Gerente de imprimer",
        "Name[id]": "Print Manager",
        "Name[is]": "Prentstjórnun",
        "Name[it]": "Gestione stampanti",
        "Name[ka]": "ბეჭდვის მართვა",
        "Name[kk]": "Басып шығару менеджері",
        "Name[km]": "កម្មវិធី​គ្រប់គ្រង​ការ​បោះពុម្ព",
        "Name[ko]": "인쇄 관리자",
        "Name[lt]": "Spausdinimo tvarkytuvė",
        "Name[mr]": "छपाई व्यवस्थापक",
        "Name[nb]": "Utskriftsbehandler",
        "Name[nds]": "Druckpleger",
        "Name[nl]": "Afdrukbeheer",
        "Name[nn]": "Utskriftshandsamar",
        "Name[pa]": "ਪਰਿੰਟ ਮੈਨੇਜਰ",
        "Name[pl]": "Zarządzanie wydrukiem",
        "Name[pt]": "Gestor de Impressão",
        "Name[pt_BR]": "Gerenciador de impressão",
        "Name[ro]": "Gestionar de imprimare",
        "Name[ru]": "Диспетчер печати",
        "Name[sk]": "Správca tlače",
        "Name[sl]": "Upravljalnik tiskanja",
        "Name[sr@ijekavian]": "Менаџер штампања",
        "Name[sr@ijekavianlatin]": "Menadžer štampanja",
        "Name[sr@latin]": "Menadžer štampanja",
        "Name[sr]": "Менаџер штампања",
        "Name[sv]": "Utskriftshanterare",
        "Name[ta]": "அச்சுப்பொறி மேலாளி",
        "Name[tg]": "Мудири принтерҳо",
        "Name[tr]": "Yazdırma Yöneticisi",
        "Name[uk]": "Керування друком",
        "Name[x-test]": "xxPrint Managerxx",
        "Name[zh_CN]": "打印机管理器",
        "Name[zh_TW]": "列印管理員"
    },
    "OnlyShowIn": "KDE;",
    "X-KDE-Kded-autoload": true,
    "X-KDE-Kded-phase": 1
}
